[
  {
    "host": "http://localhost",
    "port": "8081",
    "group": "A",
    "isReplica":"false"
  },
  {
    "host": "http://localhost",
    "port": "8084",
    "group": "A",
    "isReplica":"true"
  },
  {
    "host": "http://localhost",
    "port": "8082",
    "group": "B",
    "isReplica":"false"
  },
  {
    "host": "http://localhost",
    "port": "8083",
    "group": "C",
    "isReplica":"false"
  }
]